VD,ID,IG,INW,IPW,IS
0.0,1.2895e-08,7.3666e-11,4.218e-10,1.1e-14,-1.022e-08
0.02,2.4585e-06,7.3767e-11,4.206e-10,1.5e-14,-2.4678e-06
0.04,4.3228e-06,7.3722e-11,4.215e-10,-3.5e-15,-4.3218e-06
0.06,5.7036e-06,7.369e-11,4.218e-10,1e-15,-5.6859e-06
0.08,6.7486e-06,7.3642e-11,4.2295e-10,-8e-15,-6.7575e-06
0.1,7.511e-06,7.3699e-11,4.2215e-10,-1.5e-14,-7.5491e-06
0.12,8.141e-06,7.3682e-11,4.2165e-10,9.5e-15,-8.1772e-06
0.14,8.7024e-06,7.3604e-11,4.2175e-10,1.9e-14,-8.6707e-06
0.16,9.1286e-06,7.3694e-11,4.2115e-10,-1.85e-14,-9.1606e-06
0.18,9.5482e-06,7.3602e-11,4.2145e-10,-6.5e-15,-9.5814e-06
0.2,9.9722e-06,7.3539e-11,4.223e-10,-1.05e-14,-9.9717e-06
0.22,1.02767e-05,7.3634e-11,4.2195e-10,-1.35e-14,-1.03268e-05
0.24,1.06095e-05,7.3726e-11,4.22e-10,-8e-15,-1.06288e-05
0.26,1.08769e-05,7.3599e-11,4.224e-10,1.45e-14,-1.08772e-05
0.28,1.12709e-05,7.356e-11,4.2265e-10,-7.5e-15,-1.12822e-05
0.3,1.154e-05,7.3686e-11,4.2245e-10,-1.15e-14,-1.14916e-05
0.32,1.1736e-05,7.3702e-11,4.2165e-10,6e-15,-1.1776e-05
0.34,1.2024e-05,7.365e-11,4.217e-10,-1e-15,-1.2068e-05
0.36,1.2318e-05,7.3752e-11,4.226e-10,-9e-15,-1.236e-05
0.38,1.2576e-05,7.3783e-11,4.2045e-10,6e-15,-1.2564e-05
0.4,1.282e-05,7.3584e-11,4.2315e-10,-1e-14,-1.28e-05
0.42,1.3026e-05,7.3712e-11,4.2175e-10,6.5e-15,-1.3066e-05
0.44,1.331e-05,7.3601e-11,4.212e-10,1.15e-14,-1.3338e-05
0.46,1.3574e-05,7.374e-11,4.2215e-10,1e-15,-1.3606e-05
0.48,1.3926e-05,7.3776e-11,4.218e-10,-5.5e-15,-1.388e-05
0.5,1.4128e-05,7.3593e-11,4.2095e-10,-2e-14,-1.4142e-05
0.52,1.4308e-05,7.3831e-11,4.224e-10,-3.5e-15,-1.438e-05
0.54,1.4576e-05,7.3686e-11,4.2215e-10,1.2e-14,-1.4522e-05
0.56,1.4812e-05,7.3669e-11,4.22e-10,-7e-15,-1.4776e-05
0.58,1.5122e-05,7.3651e-11,4.2285e-10,-6e-15,-1.491e-05
0.6,1.5286e-05,7.3683e-11,4.213e-10,1.8e-14,-1.5186e-05
0.62,1.544e-05,7.3714e-11,4.2195e-10,-5e-16,-1.5482e-05
0.64,1.5648e-05,7.3523e-11,4.2185e-10,4.5e-15,-1.5592e-05
0.66,1.5876e-05,7.3568e-11,4.2145e-10,-5e-16,-1.5842e-05
0.68,1.6072e-05,7.3814e-11,4.232e-10,3.5e-15,-1.6092e-05
0.7,1.6356e-05,7.3608e-11,4.213e-10,-1.5e-15,-1.6352e-05
0.72,1.6514e-05,7.3655e-11,4.226e-10,-7e-15,-1.652e-05
0.74,1.677e-05,7.3625e-11,4.2165e-10,4e-15,-1.6722e-05
0.76,1.697e-05,7.369e-11,4.2215e-10,2.55e-14,-1.6968e-05
0.78,1.7268e-05,7.3631e-11,4.2205e-10,-2e-15,-1.7292e-05
0.8,1.7472e-05,7.3662e-11,4.212e-10,5e-16,-1.7506e-05
