VD,ID,IG,INW,IPW,IS
0.0,4.657e-09,5.7403e-11,4.2165e-10,-1.4e-14,-1.826e-09
0.02,6.436e-07,5.7412e-11,4.2145e-10,-5e-16,-6.379e-07
0.04,1.05532e-06,5.7374e-11,4.218e-10,2.25e-14,-1.05596e-06
0.06,1.352e-06,5.7437e-11,4.228e-10,1.5e-15,-1.3385e-06
0.08,1.5412e-06,5.7467e-11,4.218e-10,-1.7e-14,-1.5525e-06
0.1,1.7052e-06,5.7447e-11,4.233e-10,-1.7e-14,-1.7104e-06
0.12,1.8516e-06,5.746e-11,4.211e-10,-3e-15,-1.8304e-06
0.14,1.9731e-06,5.7509e-11,4.216e-10,1.5e-15,-1.967e-06
0.16,2.0718e-06,5.7531e-11,4.2245e-10,-9e-15,-2.0787e-06
0.18,2.1844e-06,5.7521e-11,4.2215e-10,3e-15,-2.1804e-06
0.2,2.2872e-06,5.7334e-11,4.2125e-10,-1.55e-14,-2.2892e-06
0.22,2.3782e-06,5.7488e-11,4.222e-10,-2e-15,-2.3742e-06
0.24,2.476e-06,5.7455e-11,4.219e-10,6e-15,-2.4769e-06
0.26,2.5646e-06,5.7419e-11,4.2265e-10,-1e-14,-2.5833e-06
0.28,2.6661e-06,5.7374e-11,4.215e-10,-8.5e-15,-2.6638e-06
0.3,2.7695e-06,5.7414e-11,4.2195e-10,-1.5e-15,-2.7572e-06
0.32,2.862e-06,5.7447e-11,4.2195e-10,-5.5e-15,-2.8472e-06
0.34,2.9196e-06,5.741e-11,4.219e-10,-4.5e-15,-2.9381e-06
0.36,3.0271e-06,5.7373e-11,4.216e-10,3e-15,-3.0118e-06
0.38,3.1179e-06,5.7374e-11,4.215e-10,-5e-16,-3.1266e-06
0.4,3.2071e-06,5.7421e-11,4.2245e-10,3.5e-15,-3.1986e-06
0.42,3.298e-06,5.754e-11,4.2155e-10,1.85e-14,-3.2849e-06
0.44,3.3671e-06,5.7347e-11,4.2115e-10,4.5e-15,-3.3705e-06
0.46,3.449e-06,5.7489e-11,4.208e-10,-1.2e-14,-3.4597e-06
0.48,3.5377e-06,5.7442e-11,4.2185e-10,-1.4e-14,-3.5346e-06
0.5,3.6397e-06,5.7353e-11,4.221e-10,-3e-15,-3.6283e-06
0.52,3.7193e-06,5.7367e-11,4.218e-10,4e-15,-3.7223e-06
0.54,3.8095e-06,5.7428e-11,4.224e-10,-9.5e-15,-3.7846e-06
0.56,3.9087e-06,5.7455e-11,4.2175e-10,-8.5e-15,-3.9093e-06
0.58,3.9748e-06,5.7392e-11,4.223e-10,-1.7e-14,-3.9754e-06
0.6,4.0528e-06,5.7418e-11,4.224e-10,-2e-15,-4.0562e-06
0.62,4.1371e-06,5.7446e-11,4.2265e-10,-5e-16,-4.1456e-06
0.64,4.2572e-06,5.7499e-11,4.227e-10,8e-15,-4.2337e-06
0.66,4.3164e-06,5.7365e-11,4.2095e-10,0.0,-4.3108e-06
0.68,4.4193e-06,5.7487e-11,4.215e-10,-8.5e-15,-4.4231e-06
0.7,4.4929e-06,5.7397e-11,4.2185e-10,2.35e-14,-4.509e-06
0.72,4.5851e-06,5.7358e-11,4.2155e-10,-3.65e-14,-4.5774e-06
0.74,4.6716e-06,5.7418e-11,4.2135e-10,-4.95e-14,-4.6772e-06
0.76,4.7396e-06,5.7439e-11,4.221e-10,5e-15,-4.7427e-06
0.78,4.847e-06,5.7342e-11,4.2245e-10,-6.4e-14,-4.8471e-06
0.8,4.9119e-06,5.7452e-11,4.218e-10,6e-15,-4.9296e-06
