VG,ID,IG,INW,IPW,IS
-0.2,5.9471e-11,-6.033e-13,4.2265e-10,3e-15,-7.6663e-11
-0.18,1.06749e-10,-5.291e-13,4.218e-10,6.5e-15,-1.2292e-10
-0.16,1.8983e-10,-5.269e-13,4.223e-10,1.35e-14,-1.9796e-10
-0.14,3.3916e-10,-5.079e-13,4.2225e-10,-6.5e-15,-3.4787e-10
-0.12,6.0372e-10,-4.314e-13,4.227e-10,-4.5e-15,-6.095e-10
-0.1,1.05987e-09,-4.17e-13,4.22e-10,-1.95e-14,-1.07669e-09
-0.08,1.8732e-09,-3.998e-13,4.216e-10,8e-15,-1.8851e-09
-0.06,3.3105e-09,-3.458e-13,4.222e-10,-7.5e-15,-3.3298e-09
-0.04,5.7952e-09,-3.421e-13,4.223e-10,6.5e-15,-5.7984e-09
-0.02,1.00796e-08,-2.923e-13,4.221e-10,8e-15,-1.00609e-08
0.0,1.7318e-08,-2.19e-13,4.2095e-10,2.5e-15,-1.7351e-08
0.02,2.9909e-08,-1.981e-13,4.2235e-10,7e-15,-2.9863e-08
0.04,5.0778e-08,-5.03e-14,4.228e-10,-1.5e-15,-5.0737e-08
0.06,8.5979e-08,1.404e-13,4.2195e-10,8e-15,-8.5944e-08
0.08,1.434e-07,4.964e-13,4.223e-10,3.5e-15,-1.4312e-07
0.1,2.3864e-07,1.2697e-12,4.2195e-10,-8.5e-15,-2.374e-07
0.12,3.8314e-07,2.7327e-12,4.223e-10,-1.5e-15,-3.839e-07
0.14,6.141e-07,5.6422e-12,4.2205e-10,-7e-15,-6.1302e-07
0.16,9.5738e-07,1.11055e-11,4.223e-10,4e-15,-9.589e-07
0.18,1.5031e-06,2.0133e-11,4.222e-10,3e-15,-1.4804e-06
0.2,2.2632e-06,3.2831e-11,4.219e-10,-2.6e-14,-2.2629e-06
0.22,3.3822e-06,4.6263e-11,4.223e-10,-7.5e-15,-3.3762e-06
0.24,4.9291e-06,5.7621e-11,4.2205e-10,-2.5e-15,-4.9257e-06
0.26,6.9442e-06,6.4968e-11,4.226e-10,1.5e-15,-6.9473e-06
0.28,9.7171e-06,6.9465e-11,4.208e-10,-1.2e-14,-9.7419e-06
0.3,1.3186e-05,7.199e-11,4.218e-10,-1.2e-14,-1.3168e-05
0.32,1.7536e-05,7.3858e-11,4.226e-10,4e-15,-1.7528e-05
0.34,2.2688e-05,7.496e-11,4.2205e-10,-1.9e-14,-2.2732e-05
0.36,2.864e-05,7.5787e-11,4.218e-10,-1e-15,-2.8624e-05
0.38,3.5528e-05,7.6686e-11,4.219e-10,-1.35e-14,-3.5498e-05
0.4,4.32e-05,7.7173e-11,4.2115e-10,2e-15,-4.3226e-05
0.42,5.1298e-05,7.7835e-11,4.2115e-10,8e-15,-5.1314e-05
0.44,6.0282e-05,7.8568e-11,4.219e-10,-1.1e-14,-6.0348e-05
0.46,6.9594e-05,7.9082e-11,4.2195e-10,7e-15,-6.9652e-05
0.48,7.9572e-05,7.9619e-11,4.2215e-10,-8.5e-15,-7.9512e-05
0.5,8.9684e-05,8.0319e-11,4.228e-10,-1.6e-14,-8.9598e-05
0.52,0.000100024,8.0772e-11,4.2105e-10,-5.5e-15,-9.9986e-05
0.54,0.000110466,8.1214e-11,4.2165e-10,2.5e-15,-0.000110448
0.56,0.00012126,8.186e-11,4.2095e-10,-1.25e-14,-0.00012104
0.58,0.00013216,8.2375e-11,4.2195e-10,4e-15,-0.00013224
0.6,0.00014274,8.2899e-11,4.216e-10,5e-15,-0.00014272
0.62,0.00015378,8.346e-11,4.2195e-10,-1.35e-14,-0.00015364
0.64,0.00016458,8.4206e-11,4.218e-10,2e-15,-0.00016458
0.66,0.00017564,8.4658e-11,4.217e-10,-4.5e-15,-0.00017564
0.68,0.00018664,8.5198e-11,4.2265e-10,-3.5e-15,-0.00018658
0.7,0.00019724,8.5931e-11,4.2215e-10,9e-15,-0.00019716
0.72,0.00020778,8.662e-11,4.2175e-10,-1.35e-14,-0.00020792
0.74,0.00021852,8.7475e-11,4.2205e-10,6e-15,-0.00021886
0.76,0.0002291,8.8196e-11,4.216e-10,0.0,-0.00022942
0.78,0.00023948,8.9072e-11,4.221e-10,-3e-15,-0.00023978
0.8,0.0002499,8.996e-11,4.225e-10,0.0,-0.00025
0.82,0.00026008,9.1077e-11,4.2255e-10,-6.5e-15,-0.00026002
0.84,0.00027038,9.2447e-11,4.233e-10,6.5e-15,-0.0002702
0.86,0.00027924,9.3811e-11,4.213e-10,-1.45e-14,-0.00028056
0.88,0.00029008,9.5499e-11,4.215e-10,-2.5e-15,-0.00029006
0.9,0.00030016,9.7531e-11,4.2275e-10,-7e-15,-0.00030006
0.92,0.00030936,9.9745e-11,4.2145e-10,1e-15,-0.00030942
0.94,0.00031882,1.02447e-10,4.2195e-10,-8e-15,-0.00031924
0.96,0.00032824,1.05616e-10,4.2075e-10,-5e-15,-0.00032822
0.98,0.0003374,1.09542e-10,4.2205e-10,-1.5e-15,-0.00033754
1.0,0.00034658,1.1346e-10,4.217e-10,7e-15,-0.00034628
